{
  "Routes": [
    {
      "DownstreamPathTemplate": "/api/Articles",
      "DownstreamScheme": "https",
      "DownstreamHostAndPorts": [
        {
          "Host": "localhost",
          "Port": 7011
        }
      ],
      "UpstreamPathTemplate": "/apigateway/Articles",
      "UpstreamHttpMethod": [ "GET", "PUT", "POST" ]
    },
    {
      "DownstreamPathTemplate": "/api/Articles/{id}",
      "DownstreamScheme": "https",
      "DownstreamHostAndPorts": [
        {
          "Host": "localhost",
          "Port": 7011
        }
      ],
      "UpstreamPathTemplate": "/apigateway/Articles/{id}",
      "UpstreamHttpMethod": [ "Get", "PUT", "Delete", "Post" ]
    },
    {
      "DownstreamPathTemplate": "/api/Pieces",
      "DownstreamScheme": "https",
      "DownstreamHostAndPorts": [
        {
          "Host": "localhost",
          "Port": 7011
        }
      ],
      "UpstreamPathTemplate": "/apigateway/Pieces",
      "UpstreamHttpMethod": [ "GET", "PUT", "POST" ]
    },
    {
      "DownstreamPathTemplate": "/api/Pieces/{id}",
      "DownstreamScheme": "https",
      "DownstreamHostAndPorts": [
        {
          "Host": "localhost",
          "Port": 7011
        }
      ],
      "UpstreamPathTemplate": "/apigateway/Pieces/{id}",
      "UpstreamHttpMethod": [ "Get", "PUT", "Delete", "Post" ]
    },
    {
      "DownstreamPathTemplate": "/api/Reclamations",
      "DownstreamScheme": "https",
      "DownstreamHostAndPorts": [
        {
          "Host": "localhost",
          "Port": 7193
        }
      ],
      "UpstreamPathTemplate": "/apigateway/Reclamations",
      "UpstreamHttpMethod": [ "GET", "PUT", "POST" ]
    },
    {
      "DownstreamPathTemplate": "/api/Reclamations/{id}",
      "DownstreamScheme": "https",
      "DownstreamHostAndPorts": [
        {
          "Host": "localhost",
          "Port": 7193
        }
      ],
      "UpstreamPathTemplate": "/apigateway/Reclamations/{id}",
      "UpstreamHttpMethod": [ "Get", "Post", "Delete", "PUT" ]
    },
    {
      "DownstreamPathTemplate": "/api/Reclamations",
      "DownstreamScheme": "https",
      "DownstreamHostAndPorts": [
        {
          "Host": "localhost",
          "Port": 7287
        }
      ],
      "UpstreamPathTemplate": "/apigateway/ReclamationsIntervention",
      "UpstreamHttpMethod": [ "GET", "PUT", "POST" ]
    },
    {
      "DownstreamPathTemplate": "/api/Reclamations/{id}",
      "DownstreamScheme": "https",
      "DownstreamHostAndPorts": [
        {
          "Host": "localhost",
          "Port": 7287
        }
      ],
      "UpstreamPathTemplate": "/apigateway/ReclamationsIntervention/{id}",
      "UpstreamHttpMethod": [ "Get", "Post", "Delete", "PUT" ]
    },
    {
      "DownstreamPathTemplate": "/api/Interventions",
      "DownstreamScheme": "https",
      "DownstreamHostAndPorts": [
        {
          "Host": "localhost",
          "Port": 7287
        }
      ],
      "UpstreamPathTemplate": "/apigateway/Interventions",
      "UpstreamHttpMethod": [ "GET", "PUT", "POST" ]
    },
    {
      "DownstreamPathTemplate": "/api/Interventions/{id}",
      "DownstreamScheme": "https",
      "DownstreamHostAndPorts": [
        {
          "Host": "localhost",
          "Port": 7287
        }
      ],
      "UpstreamPathTemplate": "/apigateway/Interventions/{id}",
      "UpstreamHttpMethod": [ "Get", "Post", "Delete", "PUT" ]
    },
    {
      "DownstreamPathTemplate": "/api/Factures",
      "DownstreamScheme": "https",
      "DownstreamHostAndPorts": [
        {
          "Host": "localhost",
          "Port": 7002
        }
      ],
      "UpstreamPathTemplate": "/apigateway/Factures",
      "UpstreamHttpMethod": [ "GET", "PUT", "POST" ]
    },
    {
      "DownstreamPathTemplate": "/api/Factures/{id}",
      "DownstreamScheme": "https",
      "DownstreamHostAndPorts": [
        {
          "Host": "localhost",
          "Port": 7002
        }
      ],
      "UpstreamPathTemplate": "/apigateway/Factures/{id}",
      "UpstreamHttpMethod": [ "Get", "Post", "Delete", "PUT" ]
    },
    {
      "DownstreamPathTemplate": "/api/Factures/ReportingFacture/{id}",
      "DownstreamScheme": "https",
      "DownstreamHostAndPorts": [
        {
          "Host": "localhost",
          "Port": 7002
        }
      ],
      "UpstreamPathTemplate": "/apigateway/Factures/ReportingFacture/{id}",
      "UpstreamHttpMethod": [ "Get" ]
    }
  ]
}